my_blog - Exercice3
…
print(discipline_taille_max_femmes)

# A tibble: 1 × 2
  Sport      TailleMoyenne
  <chr>              <dbl>
1 Basketball          182.

print("Discipline avec les athlètes féminines les plus grandes par édition des JO d'été :")

[1] "Discipline avec les athlètes féminines les plus grandes par édition des JO d'été :"

print(discipline_par_edition)

# A tibble: 28 × 3
# Groups:   Year [28]
    Year Sport    TailleMoyenne
   <int> <chr>            <dbl>
 1  1900 Croquet           NaN 
 2  1904 Archery           NaN 
 3  1906 Tennis            NaN 
 4  1908 Archery           NaN 
 5  1912 Diving            NaN 
 6  1920 Swimming          166.
 7  1924 Fencing           168.
 8  1928 Fencing           172.
 9  1932 Fencing           173.
10  1936 Fencing           178 
# ℹ 18 more rows

print("Nombre de fois où chaque discipline a été en tête pour la taille des athlètes féminines :")

[1] "Nombre de fois où chaque discipline a été en tête pour la taille des athlètes féminines :"

print(nombre_fois_en_tete)

# A tibble: 28 × 3
# Groups:   Year [28]
    Year Sport        n
   <int> <chr>    <int>
 1  1900 Croquet      1
 2  1904 Archery      1
 3  1906 Tennis       1
 4  1908 Archery      1
 5  1912 Diving       1
 6  1920 Swimming     1
 7  1924 Fencing      1
 8  1928 Fencing      1
 9  1932 Fencing      1
10  1936 Fencing      1
# ℹ 18 more rows
…
